<?xml version='1.0' encoding='utf-8'?>
<graphml xmlns="http://graphml.graphdrawing.org/xmlns" xmlns:xsi="http://www.w3.org/2001/XMLSchema-instance" xsi:schemaLocation="http://graphml.graphdrawing.org/xmlns http://graphml.graphdrawing.org/xmlns/1.0/graphml.xsd"><key attr.name="weight" attr.type="double" for="edge" id="d3"/>
<key attr.name="name" attr.type="string" for="node" id="d2"/>
<key attr.name="position" attr.type="string" for="node" id="d1"/>
<key attr.name="name" attr.type="string" for="graph" id="d0"/>
<graph edgedefault="undirected"><data key="d0">High Stock Prices</data>
<node id="gspc_high">
  <data key="d1">high</data>
  <data key="d2">gspc</data>
</node>
<node id="dji_high">
  <data key="d1">high</data>
  <data key="d2">dji</data>
</node>
<node id="ixic_high">
  <data key="d1">high</data>
  <data key="d2">ixic</data>
</node>
<node id="nya_high">
  <data key="d1">high</data>
  <data key="d2">nya</data>
</node>
<node id="xax_high">
  <data key="d1">high</data>
  <data key="d2">xax</data>
</node>
<node id="buk100p_high">
  <data key="d1">high</data>
  <data key="d2">buk100p</data>
</node>
<node id="rut_high">
  <data key="d1">high</data>
  <data key="d2">rut</data>
</node>
<node id="vix_high">
  <data key="d1">high</data>
  <data key="d2">vix</data>
</node>
<node id="gdaxi_high">
  <data key="d1">high</data>
  <data key="d2">gdaxi</data>
</node>
<node id="fchi_high">
  <data key="d1">high</data>
  <data key="d2">fchi</data>
</node>
<node id="stoxx50e_high">
  <data key="d1">high</data>
  <data key="d2">stoxx50e</data>
</node>
<node id="n100_high">
  <data key="d1">high</data>
  <data key="d2">n100</data>
</node>
<node id="bfx_high">
  <data key="d1">high</data>
  <data key="d2">bfx</data>
</node>
<node id="hsi_high">
  <data key="d1">high</data>
  <data key="d2">hsi</data>
</node>
<node id="axjo_high">
  <data key="d1">high</data>
  <data key="d2">axjo</data>
</node>
<node id="jkse_high">
  <data key="d1">high</data>
  <data key="d2">jkse</data>
</node>
<node id="nz50_high">
  <data key="d1">high</data>
  <data key="d2">nz50</data>
</node>
<node id="ks11_high">
  <data key="d1">high</data>
  <data key="d2">ks11</data>
</node>
<node id="twii_high">
  <data key="d1">high</data>
  <data key="d2">twii</data>
</node>
<node id="gsptse_high">
  <data key="d1">high</data>
  <data key="d2">gsptse</data>
</node>
<node id="bvsp_high">
  <data key="d1">high</data>
  <data key="d2">bvsp</data>
</node>
<node id="mxx_high">
  <data key="d1">high</data>
  <data key="d2">mxx</data>
</node>
<node id="ipsa_high">
  <data key="d1">high</data>
  <data key="d2">ipsa</data>
</node>
<node id="merv_high">
  <data key="d1">high</data>
  <data key="d2">merv</data>
</node>
<node id="ta125ta_high">
  <data key="d1">high</data>
  <data key="d2">ta125ta</data>
</node>
<node id="jn0ujo_high">
  <data key="d1">high</data>
  <data key="d2">jn0ujo</data>
</node>
<edge source="gspc_high" target="dji_high">
  <data key="d3">1.0</data>
</edge>
<edge source="gspc_high" target="ixic_high">
  <data key="d3">1.0</data>
</edge>
<edge source="gspc_high" target="nya_high">
  <data key="d3">1.0</data>
</edge>
<edge source="gspc_high" target="xax_high">
  <data key="d3">1.0</data>
</edge>
<edge source="gspc_high" target="buk100p_high">
  <data key="d3">1.0</data>
</edge>
<edge source="gspc_high" target="rut_high">
  <data key="d3">1.0</data>
</edge>
<edge source="gspc_high" target="vix_high">
  <data key="d3">1.0</data>
</edge>
<edge source="gspc_high" target="gdaxi_high">
  <data key="d3">1.0</data>
</edge>
<edge source="gspc_high" target="fchi_high">
  <data key="d3">1.0</data>
</edge>
<edge source="gspc_high" target="stoxx50e_high">
  <data key="d3">1.0</data>
</edge>
<edge source="gspc_high" target="n100_high">
  <data key="d3">1.0</data>
</edge>
<edge source="gspc_high" target="bfx_high">
  <data key="d3">1.0</data>
</edge>
<edge source="gspc_high" target="hsi_high">
  <data key="d3">1.0</data>
</edge>
<edge source="gspc_high" target="axjo_high">
  <data key="d3">1.0</data>
</edge>
<edge source="gspc_high" target="jkse_high">
  <data key="d3">1.0</data>
</edge>
<edge source="gspc_high" target="nz50_high">
  <data key="d3">1.0</data>
</edge>
<edge source="gspc_high" target="ks11_high">
  <data key="d3">1.0</data>
</edge>
<edge source="gspc_high" target="twii_high">
  <data key="d3">1.0</data>
</edge>
<edge source="gspc_high" target="gsptse_high">
  <data key="d3">1.0</data>
</edge>
<edge source="gspc_high" target="bvsp_high">
  <data key="d3">1.0</data>
</edge>
<edge source="gspc_high" target="mxx_high">
  <data key="d3">1.0</data>
</edge>
<edge source="gspc_high" target="ipsa_high">
  <data key="d3">1.0</data>
</edge>
<edge source="gspc_high" target="merv_high">
  <data key="d3">1.0</data>
</edge>
<edge source="gspc_high" target="ta125ta_high">
  <data key="d3">1.0</data>
</edge>
<edge source="gspc_high" target="jn0ujo_high">
  <data key="d3">1.0</data>
</edge>
</graph></graphml>