<?xml version='1.0' encoding='utf-8'?>
<graphml xmlns="http://graphml.graphdrawing.org/xmlns" xmlns:xsi="http://www.w3.org/2001/XMLSchema-instance" xsi:schemaLocation="http://graphml.graphdrawing.org/xmlns http://graphml.graphdrawing.org/xmlns/1.0/graphml.xsd"><key attr.name="weight" attr.type="double" for="edge" id="d3"/>
<key attr.name="name" attr.type="string" for="node" id="d2"/>
<key attr.name="position" attr.type="string" for="node" id="d1"/>
<key attr.name="name" attr.type="string" for="graph" id="d0"/>
<graph edgedefault="undirected"><data key="d0">Low Prices</data>
<node id="coppercmdusd_low">
  <data key="d1">low</data>
  <data key="d2">coppercmdusd</data>
</node>
<node id="gascmdusd_low">
  <data key="d1">low</data>
  <data key="d2">gascmdusd</data>
</node>
<node id="lightcmdusd_low">
  <data key="d1">low</data>
  <data key="d2">lightcmdusd</data>
</node>
<node id="brentcmdusd_low">
  <data key="d1">low</data>
  <data key="d2">brentcmdusd</data>
</node>
<node id="dieselcmdusd_low">
  <data key="d1">low</data>
  <data key="d2">dieselcmdusd</data>
</node>
<node id="xauusd_low">
  <data key="d1">low</data>
  <data key="d2">xauusd</data>
</node>
<node id="xagusd_low">
  <data key="d1">low</data>
  <data key="d2">xagusd</data>
</node>
<node id="gbpusd_low">
  <data key="d1">low</data>
  <data key="d2">gbpusd</data>
</node>
<node id="nzdusd_low">
  <data key="d1">low</data>
  <data key="d2">nzdusd</data>
</node>
<node id="usdcad_low">
  <data key="d1">low</data>
  <data key="d2">usdcad</data>
</node>
<node id="usdjpy_low">
  <data key="d1">low</data>
  <data key="d2">usdjpy</data>
</node>
<node id="usdchf_low">
  <data key="d1">low</data>
  <data key="d2">usdchf</data>
</node>
<node id="eurusd_low">
  <data key="d1">low</data>
  <data key="d2">eurusd</data>
</node>
<node id="audusd_low">
  <data key="d1">low</data>
  <data key="d2">audusd</data>
</node>
<node id="audcad_low">
  <data key="d1">low</data>
  <data key="d2">audcad</data>
</node>
<node id="audchf_low">
  <data key="d1">low</data>
  <data key="d2">audchf</data>
</node>
<node id="audjpy_low">
  <data key="d1">low</data>
  <data key="d2">audjpy</data>
</node>
<node id="audnzd_low">
  <data key="d1">low</data>
  <data key="d2">audnzd</data>
</node>
<node id="audsgd_low">
  <data key="d1">low</data>
  <data key="d2">audsgd</data>
</node>
<node id="cadchf_low">
  <data key="d1">low</data>
  <data key="d2">cadchf</data>
</node>
<node id="cadhkd_low">
  <data key="d1">low</data>
  <data key="d2">cadhkd</data>
</node>
<node id="cadjpy_low">
  <data key="d1">low</data>
  <data key="d2">cadjpy</data>
</node>
<node id="chfjpy_low">
  <data key="d1">low</data>
  <data key="d2">chfjpy</data>
</node>
<node id="chfsgd_low">
  <data key="d1">low</data>
  <data key="d2">chfsgd</data>
</node>
<node id="euraud_low">
  <data key="d1">low</data>
  <data key="d2">euraud</data>
</node>
<node id="eurcad_low">
  <data key="d1">low</data>
  <data key="d2">eurcad</data>
</node>
<node id="eurchf_low">
  <data key="d1">low</data>
  <data key="d2">eurchf</data>
</node>
<node id="eurczk_low">
  <data key="d1">low</data>
  <data key="d2">eurczk</data>
</node>
<node id="eurdkk_low">
  <data key="d1">low</data>
  <data key="d2">eurdkk</data>
</node>
<node id="eurgbp_low">
  <data key="d1">low</data>
  <data key="d2">eurgbp</data>
</node>
<node id="eurhkd_low">
  <data key="d1">low</data>
  <data key="d2">eurhkd</data>
</node>
<node id="eurhuf_low">
  <data key="d1">low</data>
  <data key="d2">eurhuf</data>
</node>
<node id="eurjpy_low">
  <data key="d1">low</data>
  <data key="d2">eurjpy</data>
</node>
<node id="eurnok_low">
  <data key="d1">low</data>
  <data key="d2">eurnok</data>
</node>
<node id="eurnzd_low">
  <data key="d1">low</data>
  <data key="d2">eurnzd</data>
</node>
<node id="eurpln_low">
  <data key="d1">low</data>
  <data key="d2">eurpln</data>
</node>
<node id="eurrub_low">
  <data key="d1">low</data>
  <data key="d2">eurrub</data>
</node>
<node id="eursek_low">
  <data key="d1">low</data>
  <data key="d2">eursek</data>
</node>
<node id="eursgd_low">
  <data key="d1">low</data>
  <data key="d2">eursgd</data>
</node>
<node id="eurtry_low">
  <data key="d1">low</data>
  <data key="d2">eurtry</data>
</node>
<node id="gbpaud_low">
  <data key="d1">low</data>
  <data key="d2">gbpaud</data>
</node>
<node id="gbpcad_low">
  <data key="d1">low</data>
  <data key="d2">gbpcad</data>
</node>
<node id="gbpchf_low">
  <data key="d1">low</data>
  <data key="d2">gbpchf</data>
</node>
<node id="gbpjpy_low">
  <data key="d1">low</data>
  <data key="d2">gbpjpy</data>
</node>
<node id="gbpnzd_low">
  <data key="d1">low</data>
  <data key="d2">gbpnzd</data>
</node>
<node id="hkdjpy_low">
  <data key="d1">low</data>
  <data key="d2">hkdjpy</data>
</node>
<node id="nzdcad_low">
  <data key="d1">low</data>
  <data key="d2">nzdcad</data>
</node>
<node id="nzdchf_low">
  <data key="d1">low</data>
  <data key="d2">nzdchf</data>
</node>
<node id="nzdjpy_low">
  <data key="d1">low</data>
  <data key="d2">nzdjpy</data>
</node>
<node id="sgdjpy_low">
  <data key="d1">low</data>
  <data key="d2">sgdjpy</data>
</node>
<node id="tryjpy_low">
  <data key="d1">low</data>
  <data key="d2">tryjpy</data>
</node>
<node id="usdcnh_low">
  <data key="d1">low</data>
  <data key="d2">usdcnh</data>
</node>
<node id="usdczk_low">
  <data key="d1">low</data>
  <data key="d2">usdczk</data>
</node>
<node id="usddkk_low">
  <data key="d1">low</data>
  <data key="d2">usddkk</data>
</node>
<node id="usdhuf_low">
  <data key="d1">low</data>
  <data key="d2">usdhuf</data>
</node>
<node id="usdils_low">
  <data key="d1">low</data>
  <data key="d2">usdils</data>
</node>
<node id="usdmxn_low">
  <data key="d1">low</data>
  <data key="d2">usdmxn</data>
</node>
<node id="usdnok_low">
  <data key="d1">low</data>
  <data key="d2">usdnok</data>
</node>
<node id="usdpln_low">
  <data key="d1">low</data>
  <data key="d2">usdpln</data>
</node>
<node id="usdron_low">
  <data key="d1">low</data>
  <data key="d2">usdron</data>
</node>
<node id="usdrub_low">
  <data key="d1">low</data>
  <data key="d2">usdrub</data>
</node>
<node id="usdsek_low">
  <data key="d1">low</data>
  <data key="d2">usdsek</data>
</node>
<node id="usdsgd_low">
  <data key="d1">low</data>
  <data key="d2">usdsgd</data>
</node>
<node id="usdthb_low">
  <data key="d1">low</data>
  <data key="d2">usdthb</data>
</node>
<node id="usdtry_low">
  <data key="d1">low</data>
  <data key="d2">usdtry</data>
</node>
<node id="usdzar_low">
  <data key="d1">low</data>
  <data key="d2">usdzar</data>
</node>
<node id="zarjpy_low">
  <data key="d1">low</data>
  <data key="d2">zarjpy</data>
</node>
<edge source="coppercmdusd_low" target="xagusd_low">
  <data key="d3">0.9235683435277211</data>
</edge>
<edge source="gascmdusd_low" target="hkdjpy_low">
  <data key="d3">0.6064572159270099</data>
</edge>
<edge source="lightcmdusd_low" target="brentcmdusd_low">
  <data key="d3">0.9236627056862002</data>
</edge>
<edge source="brentcmdusd_low" target="dieselcmdusd_low">
  <data key="d3">0.9826797105447639</data>
</edge>
<edge source="dieselcmdusd_low" target="usdrub_low">
  <data key="d3">0.8285322906873619</data>
</edge>
<edge source="xauusd_low" target="nzdusd_low">
  <data key="d3">0.9461685855570576</data>
</edge>
<edge source="xauusd_low" target="xagusd_low">
  <data key="d3">0.9273055491973323</data>
</edge>
<edge source="xagusd_low" target="nzdchf_low">
  <data key="d3">0.9327910734781184</data>
</edge>
<edge source="gbpusd_low" target="eurhkd_low">
  <data key="d3">0.9673406754527207</data>
</edge>
<edge source="nzdusd_low" target="audusd_low">
  <data key="d3">0.9613180063273821</data>
</edge>
<edge source="nzdusd_low" target="eurhkd_low">
  <data key="d3">0.9348289443672074</data>
</edge>
<edge source="nzdusd_low" target="zarjpy_low">
  <data key="d3">0.924880718280964</data>
</edge>
<edge source="nzdusd_low" target="nzdcad_low">
  <data key="d3">0.8978045387659584</data>
</edge>
<edge source="usdcad_low" target="eurpln_low">
  <data key="d3">0.8709844164442453</data>
</edge>
<edge source="usdjpy_low" target="hkdjpy_low">
  <data key="d3">0.9972192818107397</data>
</edge>
<edge source="usdjpy_low" target="usdsgd_low">
  <data key="d3">0.7934661636065413</data>
</edge>
<edge source="usdchf_low" target="usdczk_low">
  <data key="d3">0.823042104154508</data>
</edge>
<edge source="eurusd_low" target="eurhkd_low">
  <data key="d3">0.9987007597342041</data>
</edge>
<edge source="eurusd_low" target="eursgd_low">
  <data key="d3">0.8795637005731559</data>
</edge>
<edge source="audusd_low" target="audsgd_low">
  <data key="d3">0.9410882862194873</data>
</edge>
<edge source="audusd_low" target="nzdjpy_low">
  <data key="d3">0.9247224854836066</data>
</edge>
<edge source="audcad_low" target="nzdcad_low">
  <data key="d3">0.9358632535813273</data>
</edge>
<edge source="audchf_low" target="nzdchf_low">
  <data key="d3">0.9190656364509847</data>
</edge>
<edge source="audjpy_low" target="audsgd_low">
  <data key="d3">0.9116194168693315</data>
</edge>
<edge source="audjpy_low" target="sgdjpy_low">
  <data key="d3">0.7649991176073945</data>
</edge>
<edge source="audnzd_low" target="hkdjpy_low">
  <data key="d3">0.7408901946613676</data>
</edge>
<edge source="cadchf_low" target="sgdjpy_low">
  <data key="d3">0.6325794253929965</data>
</edge>
<edge source="cadhkd_low" target="gbpjpy_low">
  <data key="d3">0.814759344201955</data>
</edge>
<edge source="cadjpy_low" target="sgdjpy_low">
  <data key="d3">0.8615672732493277</data>
</edge>
<edge source="cadjpy_low" target="hkdjpy_low">
  <data key="d3">0.6679253207798046</data>
</edge>
<edge source="cadjpy_low" target="chfjpy_low">
  <data key="d3">0.6303442346912774</data>
</edge>
<edge source="chfjpy_low" target="chfsgd_low">
  <data key="d3">0.74993199988394</data>
</edge>
<edge source="euraud_low" target="gbpaud_low">
  <data key="d3">0.8626468118583204</data>
</edge>
<edge source="euraud_low" target="gbpnzd_low">
  <data key="d3">0.8208694694006646</data>
</edge>
<edge source="eurcad_low" target="gbpcad_low">
  <data key="d3">0.9234671849205556</data>
</edge>
<edge source="eurchf_low" target="gbpchf_low">
  <data key="d3">0.9428808419014411</data>
</edge>
<edge source="eurchf_low" target="nzdchf_low">
  <data key="d3">0.8751360460121393</data>
</edge>
<edge source="eurczk_low" target="usdczk_low">
  <data key="d3">0.9108200775625932</data>
</edge>
<edge source="eurczk_low" target="usdmxn_low">
  <data key="d3">0.5526404771299093</data>
</edge>
<edge source="eurdkk_low" target="usdtry_low">
  <data key="d3">0.8641343850806967</data>
</edge>
<edge source="eurdkk_low" target="eurnzd_low">
  <data key="d3">0.8633474613831106</data>
</edge>
<edge source="eurgbp_low" target="usdcnh_low">
  <data key="d3">0.6100939693599097</data>
</edge>
<edge source="eurhuf_low" target="usdhuf_low">
  <data key="d3">0.9611750829834714</data>
</edge>
<edge source="eurjpy_low" target="gbpjpy_low">
  <data key="d3">0.907664236292416</data>
</edge>
<edge source="eurnok_low" target="eursgd_low">
  <data key="d3">0.4591220268902737</data>
</edge>
<edge source="eurnzd_low" target="gbpnzd_low">
  <data key="d3">0.8577522235069891</data>
</edge>
<edge source="eurpln_low" target="usdpln_low">
  <data key="d3">0.9471485502669087</data>
</edge>
<edge source="eurrub_low" target="usdrub_low">
  <data key="d3">0.9363400009100906</data>
</edge>
<edge source="eursek_low" target="usdsek_low">
  <data key="d3">0.8603636201266306</data>
</edge>
<edge source="eurtry_low" target="usdtry_low">
  <data key="d3">0.9963234754600415</data>
</edge>
<edge source="gbpcad_low" target="nzdcad_low">
  <data key="d3">0.8644128853199852</data>
</edge>
<edge source="gbpjpy_low" target="nzdjpy_low">
  <data key="d3">0.8383565441714477</data>
</edge>
<edge source="tryjpy_low" target="zarjpy_low">
  <data key="d3">0.9465107385172502</data>
</edge>
<edge source="usdcnh_low" target="usdsgd_low">
  <data key="d3">0.9429497520226101</data>
</edge>
<edge source="usdczk_low" target="usddkk_low">
  <data key="d3">0.9929473184830347</data>
</edge>
<edge source="usdczk_low" target="usdpln_low">
  <data key="d3">0.989900082507149</data>
</edge>
<edge source="usddkk_low" target="usdron_low">
  <data key="d3">0.9947746757417952</data>
</edge>
<edge source="usddkk_low" target="usdnok_low">
  <data key="d3">0.9450873059759042</data>
</edge>
<edge source="usdhuf_low" target="usdpln_low">
  <data key="d3">0.989454733704442</data>
</edge>
<edge source="usdhuf_low" target="usdsgd_low">
  <data key="d3">0.9607622265503044</data>
</edge>
<edge source="usdils_low" target="usdsek_low">
  <data key="d3">0.9100144849428463</data>
</edge>
<edge source="usdpln_low" target="usdsek_low">
  <data key="d3">0.9382558298076962</data>
</edge>
<edge source="usdrub_low" target="usdsek_low">
  <data key="d3">0.9391643014085407</data>
</edge>
<edge source="usdsgd_low" target="usdzar_low">
  <data key="d3">0.9460953944941694</data>
</edge>
<edge source="usdsgd_low" target="usdthb_low">
  <data key="d3">0.9021952298030483</data>
</edge>
<edge source="usdtry_low" target="usdzar_low">
  <data key="d3">0.9515143069795156</data>
</edge>
</graph></graphml>