<?xml version='1.0' encoding='utf-8'?>
<graphml xmlns="http://graphml.graphdrawing.org/xmlns" xmlns:xsi="http://www.w3.org/2001/XMLSchema-instance" xsi:schemaLocation="http://graphml.graphdrawing.org/xmlns http://graphml.graphdrawing.org/xmlns/1.0/graphml.xsd"><key attr.name="weight" attr.type="double" for="edge" id="d3"/>
<key attr.name="name" attr.type="string" for="node" id="d2"/>
<key attr.name="position" attr.type="string" for="node" id="d1"/>
<key attr.name="name" attr.type="string" for="graph" id="d0"/>
<graph edgedefault="undirected"><data key="d0">Stocks Data</data>
<node id="gspc_open">
  <data key="d1">open</data>
  <data key="d2">gspc</data>
</node>
<node id="gspc_high">
  <data key="d1">high</data>
  <data key="d2">gspc</data>
</node>
<node id="gspc_low">
  <data key="d1">low</data>
  <data key="d2">gspc</data>
</node>
<node id="gspc_close">
  <data key="d1">close</data>
  <data key="d2">gspc</data>
</node>
<node id="gspc_adjclose">
  <data key="d1">adjclose</data>
  <data key="d2">gspc</data>
</node>
<node id="gspc_volume">
  <data key="d1">volume</data>
  <data key="d2">gspc</data>
</node>
<node id="dji_open">
  <data key="d1">open</data>
  <data key="d2">dji</data>
</node>
<node id="dji_high">
  <data key="d1">high</data>
  <data key="d2">dji</data>
</node>
<node id="dji_low">
  <data key="d1">low</data>
  <data key="d2">dji</data>
</node>
<node id="dji_close">
  <data key="d1">close</data>
  <data key="d2">dji</data>
</node>
<node id="dji_adjclose">
  <data key="d1">adjclose</data>
  <data key="d2">dji</data>
</node>
<node id="dji_volume">
  <data key="d1">volume</data>
  <data key="d2">dji</data>
</node>
<node id="ixic_open">
  <data key="d1">open</data>
  <data key="d2">ixic</data>
</node>
<node id="ixic_high">
  <data key="d1">high</data>
  <data key="d2">ixic</data>
</node>
<node id="ixic_low">
  <data key="d1">low</data>
  <data key="d2">ixic</data>
</node>
<node id="ixic_close">
  <data key="d1">close</data>
  <data key="d2">ixic</data>
</node>
<node id="ixic_adjclose">
  <data key="d1">adjclose</data>
  <data key="d2">ixic</data>
</node>
<node id="ixic_volume">
  <data key="d1">volume</data>
  <data key="d2">ixic</data>
</node>
<node id="nya_open">
  <data key="d1">open</data>
  <data key="d2">nya</data>
</node>
<node id="nya_high">
  <data key="d1">high</data>
  <data key="d2">nya</data>
</node>
<node id="nya_low">
  <data key="d1">low</data>
  <data key="d2">nya</data>
</node>
<node id="nya_close">
  <data key="d1">close</data>
  <data key="d2">nya</data>
</node>
<node id="nya_adjclose">
  <data key="d1">adjclose</data>
  <data key="d2">nya</data>
</node>
<node id="nya_volume">
  <data key="d1">volume</data>
  <data key="d2">nya</data>
</node>
<node id="xax_open">
  <data key="d1">open</data>
  <data key="d2">xax</data>
</node>
<node id="xax_high">
  <data key="d1">high</data>
  <data key="d2">xax</data>
</node>
<node id="xax_low">
  <data key="d1">low</data>
  <data key="d2">xax</data>
</node>
<node id="xax_close">
  <data key="d1">close</data>
  <data key="d2">xax</data>
</node>
<node id="xax_adjclose">
  <data key="d1">adjclose</data>
  <data key="d2">xax</data>
</node>
<node id="xax_volume">
  <data key="d1">volume</data>
  <data key="d2">xax</data>
</node>
<node id="buk100p_open">
  <data key="d1">open</data>
  <data key="d2">buk100p</data>
</node>
<node id="buk100p_high">
  <data key="d1">high</data>
  <data key="d2">buk100p</data>
</node>
<node id="buk100p_low">
  <data key="d1">low</data>
  <data key="d2">buk100p</data>
</node>
<node id="buk100p_close">
  <data key="d1">close</data>
  <data key="d2">buk100p</data>
</node>
<node id="buk100p_adjclose">
  <data key="d1">adjclose</data>
  <data key="d2">buk100p</data>
</node>
<node id="buk100p_volume">
  <data key="d1">volume</data>
  <data key="d2">buk100p</data>
</node>
<node id="rut_open">
  <data key="d1">open</data>
  <data key="d2">rut</data>
</node>
<node id="rut_high">
  <data key="d1">high</data>
  <data key="d2">rut</data>
</node>
<node id="rut_low">
  <data key="d1">low</data>
  <data key="d2">rut</data>
</node>
<node id="rut_close">
  <data key="d1">close</data>
  <data key="d2">rut</data>
</node>
<node id="rut_adjclose">
  <data key="d1">adjclose</data>
  <data key="d2">rut</data>
</node>
<node id="rut_volume">
  <data key="d1">volume</data>
  <data key="d2">rut</data>
</node>
<node id="vix_open">
  <data key="d1">open</data>
  <data key="d2">vix</data>
</node>
<node id="vix_high">
  <data key="d1">high</data>
  <data key="d2">vix</data>
</node>
<node id="vix_low">
  <data key="d1">low</data>
  <data key="d2">vix</data>
</node>
<node id="vix_close">
  <data key="d1">close</data>
  <data key="d2">vix</data>
</node>
<node id="vix_adjclose">
  <data key="d1">adjclose</data>
  <data key="d2">vix</data>
</node>
<node id="vix_volume">
  <data key="d1">volume</data>
  <data key="d2">vix</data>
</node>
<node id="gdaxi_open">
  <data key="d1">open</data>
  <data key="d2">gdaxi</data>
</node>
<node id="gdaxi_high">
  <data key="d1">high</data>
  <data key="d2">gdaxi</data>
</node>
<node id="gdaxi_low">
  <data key="d1">low</data>
  <data key="d2">gdaxi</data>
</node>
<node id="gdaxi_close">
  <data key="d1">close</data>
  <data key="d2">gdaxi</data>
</node>
<node id="gdaxi_adjclose">
  <data key="d1">adjclose</data>
  <data key="d2">gdaxi</data>
</node>
<node id="gdaxi_volume">
  <data key="d1">volume</data>
  <data key="d2">gdaxi</data>
</node>
<node id="fchi_open">
  <data key="d1">open</data>
  <data key="d2">fchi</data>
</node>
<node id="fchi_high">
  <data key="d1">high</data>
  <data key="d2">fchi</data>
</node>
<node id="fchi_low">
  <data key="d1">low</data>
  <data key="d2">fchi</data>
</node>
<node id="fchi_close">
  <data key="d1">close</data>
  <data key="d2">fchi</data>
</node>
<node id="fchi_adjclose">
  <data key="d1">adjclose</data>
  <data key="d2">fchi</data>
</node>
<node id="fchi_volume">
  <data key="d1">volume</data>
  <data key="d2">fchi</data>
</node>
<node id="stoxx50e_open">
  <data key="d1">open</data>
  <data key="d2">stoxx50e</data>
</node>
<node id="stoxx50e_high">
  <data key="d1">high</data>
  <data key="d2">stoxx50e</data>
</node>
<node id="stoxx50e_low">
  <data key="d1">low</data>
  <data key="d2">stoxx50e</data>
</node>
<node id="stoxx50e_close">
  <data key="d1">close</data>
  <data key="d2">stoxx50e</data>
</node>
<node id="stoxx50e_adjclose">
  <data key="d1">adjclose</data>
  <data key="d2">stoxx50e</data>
</node>
<node id="stoxx50e_volume">
  <data key="d1">volume</data>
  <data key="d2">stoxx50e</data>
</node>
<node id="n100_open">
  <data key="d1">open</data>
  <data key="d2">n100</data>
</node>
<node id="n100_high">
  <data key="d1">high</data>
  <data key="d2">n100</data>
</node>
<node id="n100_low">
  <data key="d1">low</data>
  <data key="d2">n100</data>
</node>
<node id="n100_close">
  <data key="d1">close</data>
  <data key="d2">n100</data>
</node>
<node id="n100_adjclose">
  <data key="d1">adjclose</data>
  <data key="d2">n100</data>
</node>
<node id="n100_volume">
  <data key="d1">volume</data>
  <data key="d2">n100</data>
</node>
<node id="bfx_open">
  <data key="d1">open</data>
  <data key="d2">bfx</data>
</node>
<node id="bfx_high">
  <data key="d1">high</data>
  <data key="d2">bfx</data>
</node>
<node id="bfx_low">
  <data key="d1">low</data>
  <data key="d2">bfx</data>
</node>
<node id="bfx_close">
  <data key="d1">close</data>
  <data key="d2">bfx</data>
</node>
<node id="bfx_adjclose">
  <data key="d1">adjclose</data>
  <data key="d2">bfx</data>
</node>
<node id="bfx_volume">
  <data key="d1">volume</data>
  <data key="d2">bfx</data>
</node>
<node id="hsi_open">
  <data key="d1">open</data>
  <data key="d2">hsi</data>
</node>
<node id="hsi_high">
  <data key="d1">high</data>
  <data key="d2">hsi</data>
</node>
<node id="hsi_low">
  <data key="d1">low</data>
  <data key="d2">hsi</data>
</node>
<node id="hsi_close">
  <data key="d1">close</data>
  <data key="d2">hsi</data>
</node>
<node id="hsi_adjclose">
  <data key="d1">adjclose</data>
  <data key="d2">hsi</data>
</node>
<node id="hsi_volume">
  <data key="d1">volume</data>
  <data key="d2">hsi</data>
</node>
<node id="axjo_open">
  <data key="d1">open</data>
  <data key="d2">axjo</data>
</node>
<node id="axjo_high">
  <data key="d1">high</data>
  <data key="d2">axjo</data>
</node>
<node id="axjo_low">
  <data key="d1">low</data>
  <data key="d2">axjo</data>
</node>
<node id="axjo_close">
  <data key="d1">close</data>
  <data key="d2">axjo</data>
</node>
<node id="axjo_adjclose">
  <data key="d1">adjclose</data>
  <data key="d2">axjo</data>
</node>
<node id="axjo_volume">
  <data key="d1">volume</data>
  <data key="d2">axjo</data>
</node>
<node id="jkse_open">
  <data key="d1">open</data>
  <data key="d2">jkse</data>
</node>
<node id="jkse_high">
  <data key="d1">high</data>
  <data key="d2">jkse</data>
</node>
<node id="jkse_low">
  <data key="d1">low</data>
  <data key="d2">jkse</data>
</node>
<node id="jkse_close">
  <data key="d1">close</data>
  <data key="d2">jkse</data>
</node>
<node id="jkse_adjclose">
  <data key="d1">adjclose</data>
  <data key="d2">jkse</data>
</node>
<node id="jkse_volume">
  <data key="d1">volume</data>
  <data key="d2">jkse</data>
</node>
<node id="nz50_open">
  <data key="d1">open</data>
  <data key="d2">nz50</data>
</node>
<node id="nz50_high">
  <data key="d1">high</data>
  <data key="d2">nz50</data>
</node>
<node id="nz50_low">
  <data key="d1">low</data>
  <data key="d2">nz50</data>
</node>
<node id="nz50_close">
  <data key="d1">close</data>
  <data key="d2">nz50</data>
</node>
<node id="nz50_adjclose">
  <data key="d1">adjclose</data>
  <data key="d2">nz50</data>
</node>
<node id="nz50_volume">
  <data key="d1">volume</data>
  <data key="d2">nz50</data>
</node>
<node id="ks11_open">
  <data key="d1">open</data>
  <data key="d2">ks11</data>
</node>
<node id="ks11_high">
  <data key="d1">high</data>
  <data key="d2">ks11</data>
</node>
<node id="ks11_low">
  <data key="d1">low</data>
  <data key="d2">ks11</data>
</node>
<node id="ks11_close">
  <data key="d1">close</data>
  <data key="d2">ks11</data>
</node>
<node id="ks11_adjclose">
  <data key="d1">adjclose</data>
  <data key="d2">ks11</data>
</node>
<node id="ks11_volume">
  <data key="d1">volume</data>
  <data key="d2">ks11</data>
</node>
<node id="twii_open">
  <data key="d1">open</data>
  <data key="d2">twii</data>
</node>
<node id="twii_high">
  <data key="d1">high</data>
  <data key="d2">twii</data>
</node>
<node id="twii_low">
  <data key="d1">low</data>
  <data key="d2">twii</data>
</node>
<node id="twii_close">
  <data key="d1">close</data>
  <data key="d2">twii</data>
</node>
<node id="twii_adjclose">
  <data key="d1">adjclose</data>
  <data key="d2">twii</data>
</node>
<node id="twii_volume">
  <data key="d1">volume</data>
  <data key="d2">twii</data>
</node>
<node id="gsptse_open">
  <data key="d1">open</data>
  <data key="d2">gsptse</data>
</node>
<node id="gsptse_high">
  <data key="d1">high</data>
  <data key="d2">gsptse</data>
</node>
<node id="gsptse_low">
  <data key="d1">low</data>
  <data key="d2">gsptse</data>
</node>
<node id="gsptse_close">
  <data key="d1">close</data>
  <data key="d2">gsptse</data>
</node>
<node id="gsptse_adjclose">
  <data key="d1">adjclose</data>
  <data key="d2">gsptse</data>
</node>
<node id="gsptse_volume">
  <data key="d1">volume</data>
  <data key="d2">gsptse</data>
</node>
<node id="bvsp_open">
  <data key="d1">open</data>
  <data key="d2">bvsp</data>
</node>
<node id="bvsp_high">
  <data key="d1">high</data>
  <data key="d2">bvsp</data>
</node>
<node id="bvsp_low">
  <data key="d1">low</data>
  <data key="d2">bvsp</data>
</node>
<node id="bvsp_close">
  <data key="d1">close</data>
  <data key="d2">bvsp</data>
</node>
<node id="bvsp_adjclose">
  <data key="d1">adjclose</data>
  <data key="d2">bvsp</data>
</node>
<node id="bvsp_volume">
  <data key="d1">volume</data>
  <data key="d2">bvsp</data>
</node>
<node id="mxx_open">
  <data key="d1">open</data>
  <data key="d2">mxx</data>
</node>
<node id="mxx_high">
  <data key="d1">high</data>
  <data key="d2">mxx</data>
</node>
<node id="mxx_low">
  <data key="d1">low</data>
  <data key="d2">mxx</data>
</node>
<node id="mxx_close">
  <data key="d1">close</data>
  <data key="d2">mxx</data>
</node>
<node id="mxx_adjclose">
  <data key="d1">adjclose</data>
  <data key="d2">mxx</data>
</node>
<node id="mxx_volume">
  <data key="d1">volume</data>
  <data key="d2">mxx</data>
</node>
<node id="ipsa_open">
  <data key="d1">open</data>
  <data key="d2">ipsa</data>
</node>
<node id="ipsa_high">
  <data key="d1">high</data>
  <data key="d2">ipsa</data>
</node>
<node id="ipsa_low">
  <data key="d1">low</data>
  <data key="d2">ipsa</data>
</node>
<node id="ipsa_close">
  <data key="d1">close</data>
  <data key="d2">ipsa</data>
</node>
<node id="ipsa_adjclose">
  <data key="d1">adjclose</data>
  <data key="d2">ipsa</data>
</node>
<node id="ipsa_volume">
  <data key="d1">volume</data>
  <data key="d2">ipsa</data>
</node>
<node id="merv_open">
  <data key="d1">open</data>
  <data key="d2">merv</data>
</node>
<node id="merv_high">
  <data key="d1">high</data>
  <data key="d2">merv</data>
</node>
<node id="merv_low">
  <data key="d1">low</data>
  <data key="d2">merv</data>
</node>
<node id="merv_close">
  <data key="d1">close</data>
  <data key="d2">merv</data>
</node>
<node id="merv_adjclose">
  <data key="d1">adjclose</data>
  <data key="d2">merv</data>
</node>
<node id="merv_volume">
  <data key="d1">volume</data>
  <data key="d2">merv</data>
</node>
<node id="ta125ta_open">
  <data key="d1">open</data>
  <data key="d2">ta125ta</data>
</node>
<node id="ta125ta_high">
  <data key="d1">high</data>
  <data key="d2">ta125ta</data>
</node>
<node id="ta125ta_low">
  <data key="d1">low</data>
  <data key="d2">ta125ta</data>
</node>
<node id="ta125ta_close">
  <data key="d1">close</data>
  <data key="d2">ta125ta</data>
</node>
<node id="ta125ta_adjclose">
  <data key="d1">adjclose</data>
  <data key="d2">ta125ta</data>
</node>
<node id="ta125ta_volume">
  <data key="d1">volume</data>
  <data key="d2">ta125ta</data>
</node>
<node id="jn0ujo_open">
  <data key="d1">open</data>
  <data key="d2">jn0ujo</data>
</node>
<node id="jn0ujo_high">
  <data key="d1">high</data>
  <data key="d2">jn0ujo</data>
</node>
<node id="jn0ujo_low">
  <data key="d1">low</data>
  <data key="d2">jn0ujo</data>
</node>
<node id="jn0ujo_close">
  <data key="d1">close</data>
  <data key="d2">jn0ujo</data>
</node>
<node id="jn0ujo_adjclose">
  <data key="d1">adjclose</data>
  <data key="d2">jn0ujo</data>
</node>
<node id="jn0ujo_volume">
  <data key="d1">volume</data>
  <data key="d2">jn0ujo</data>
</node>
<node id="coppercmdusd_high">
  <data key="d1">high</data>
  <data key="d2">coppercmdusd</data>
</node>
<node id="coppercmdusd_low">
  <data key="d1">low</data>
  <data key="d2">coppercmdusd</data>
</node>
<node id="coppercmdusd_avg">
  <data key="d1">avg</data>
  <data key="d2">coppercmdusd</data>
</node>
<node id="gascmdusd_high">
  <data key="d1">high</data>
  <data key="d2">gascmdusd</data>
</node>
<node id="gascmdusd_low">
  <data key="d1">low</data>
  <data key="d2">gascmdusd</data>
</node>
<node id="gascmdusd_avg">
  <data key="d1">avg</data>
  <data key="d2">gascmdusd</data>
</node>
<node id="lightcmdusd_high">
  <data key="d1">high</data>
  <data key="d2">lightcmdusd</data>
</node>
<node id="lightcmdusd_low">
  <data key="d1">low</data>
  <data key="d2">lightcmdusd</data>
</node>
<node id="lightcmdusd_avg">
  <data key="d1">avg</data>
  <data key="d2">lightcmdusd</data>
</node>
<node id="brentcmdusd_high">
  <data key="d1">high</data>
  <data key="d2">brentcmdusd</data>
</node>
<node id="brentcmdusd_low">
  <data key="d1">low</data>
  <data key="d2">brentcmdusd</data>
</node>
<node id="brentcmdusd_avg">
  <data key="d1">avg</data>
  <data key="d2">brentcmdusd</data>
</node>
<node id="dieselcmdusd_high">
  <data key="d1">high</data>
  <data key="d2">dieselcmdusd</data>
</node>
<node id="dieselcmdusd_low">
  <data key="d1">low</data>
  <data key="d2">dieselcmdusd</data>
</node>
<node id="dieselcmdusd_avg">
  <data key="d1">avg</data>
  <data key="d2">dieselcmdusd</data>
</node>
<node id="xauusd_high">
  <data key="d1">high</data>
  <data key="d2">xauusd</data>
</node>
<node id="xauusd_low">
  <data key="d1">low</data>
  <data key="d2">xauusd</data>
</node>
<node id="xauusd_avg">
  <data key="d1">avg</data>
  <data key="d2">xauusd</data>
</node>
<node id="xagusd_high">
  <data key="d1">high</data>
  <data key="d2">xagusd</data>
</node>
<node id="xagusd_low">
  <data key="d1">low</data>
  <data key="d2">xagusd</data>
</node>
<node id="xagusd_avg">
  <data key="d1">avg</data>
  <data key="d2">xagusd</data>
</node>
<node id="gbpusd_high">
  <data key="d1">high</data>
  <data key="d2">gbpusd</data>
</node>
<node id="gbpusd_low">
  <data key="d1">low</data>
  <data key="d2">gbpusd</data>
</node>
<node id="gbpusd_avg">
  <data key="d1">avg</data>
  <data key="d2">gbpusd</data>
</node>
<node id="nzdusd_high">
  <data key="d1">high</data>
  <data key="d2">nzdusd</data>
</node>
<node id="nzdusd_low">
  <data key="d1">low</data>
  <data key="d2">nzdusd</data>
</node>
<node id="nzdusd_avg">
  <data key="d1">avg</data>
  <data key="d2">nzdusd</data>
</node>
<node id="usdcad_high">
  <data key="d1">high</data>
  <data key="d2">usdcad</data>
</node>
<node id="usdcad_low">
  <data key="d1">low</data>
  <data key="d2">usdcad</data>
</node>
<node id="usdcad_avg">
  <data key="d1">avg</data>
  <data key="d2">usdcad</data>
</node>
<node id="usdjpy_high">
  <data key="d1">high</data>
  <data key="d2">usdjpy</data>
</node>
<node id="usdjpy_low">
  <data key="d1">low</data>
  <data key="d2">usdjpy</data>
</node>
<node id="usdjpy_avg">
  <data key="d1">avg</data>
  <data key="d2">usdjpy</data>
</node>
<node id="usdchf_high">
  <data key="d1">high</data>
  <data key="d2">usdchf</data>
</node>
<node id="usdchf_low">
  <data key="d1">low</data>
  <data key="d2">usdchf</data>
</node>
<node id="usdchf_avg">
  <data key="d1">avg</data>
  <data key="d2">usdchf</data>
</node>
<node id="eurusd_high">
  <data key="d1">high</data>
  <data key="d2">eurusd</data>
</node>
<node id="eurusd_low">
  <data key="d1">low</data>
  <data key="d2">eurusd</data>
</node>
<node id="eurusd_avg">
  <data key="d1">avg</data>
  <data key="d2">eurusd</data>
</node>
<node id="audusd_high">
  <data key="d1">high</data>
  <data key="d2">audusd</data>
</node>
<node id="audusd_low">
  <data key="d1">low</data>
  <data key="d2">audusd</data>
</node>
<node id="audusd_avg">
  <data key="d1">avg</data>
  <data key="d2">audusd</data>
</node>
<node id="audcad_high">
  <data key="d1">high</data>
  <data key="d2">audcad</data>
</node>
<node id="audcad_low">
  <data key="d1">low</data>
  <data key="d2">audcad</data>
</node>
<node id="audcad_avg">
  <data key="d1">avg</data>
  <data key="d2">audcad</data>
</node>
<node id="audchf_high">
  <data key="d1">high</data>
  <data key="d2">audchf</data>
</node>
<node id="audchf_low">
  <data key="d1">low</data>
  <data key="d2">audchf</data>
</node>
<node id="audchf_avg">
  <data key="d1">avg</data>
  <data key="d2">audchf</data>
</node>
<node id="audjpy_high">
  <data key="d1">high</data>
  <data key="d2">audjpy</data>
</node>
<node id="audjpy_low">
  <data key="d1">low</data>
  <data key="d2">audjpy</data>
</node>
<node id="audjpy_avg">
  <data key="d1">avg</data>
  <data key="d2">audjpy</data>
</node>
<node id="audnzd_high">
  <data key="d1">high</data>
  <data key="d2">audnzd</data>
</node>
<node id="audnzd_low">
  <data key="d1">low</data>
  <data key="d2">audnzd</data>
</node>
<node id="audnzd_avg">
  <data key="d1">avg</data>
  <data key="d2">audnzd</data>
</node>
<node id="audsgd_high">
  <data key="d1">high</data>
  <data key="d2">audsgd</data>
</node>
<node id="audsgd_low">
  <data key="d1">low</data>
  <data key="d2">audsgd</data>
</node>
<node id="audsgd_avg">
  <data key="d1">avg</data>
  <data key="d2">audsgd</data>
</node>
<node id="cadchf_high">
  <data key="d1">high</data>
  <data key="d2">cadchf</data>
</node>
<node id="cadchf_low">
  <data key="d1">low</data>
  <data key="d2">cadchf</data>
</node>
<node id="cadchf_avg">
  <data key="d1">avg</data>
  <data key="d2">cadchf</data>
</node>
<node id="cadhkd_high">
  <data key="d1">high</data>
  <data key="d2">cadhkd</data>
</node>
<node id="cadhkd_low">
  <data key="d1">low</data>
  <data key="d2">cadhkd</data>
</node>
<node id="cadhkd_avg">
  <data key="d1">avg</data>
  <data key="d2">cadhkd</data>
</node>
<node id="cadjpy_high">
  <data key="d1">high</data>
  <data key="d2">cadjpy</data>
</node>
<node id="cadjpy_low">
  <data key="d1">low</data>
  <data key="d2">cadjpy</data>
</node>
<node id="cadjpy_avg">
  <data key="d1">avg</data>
  <data key="d2">cadjpy</data>
</node>
<node id="chfjpy_high">
  <data key="d1">high</data>
  <data key="d2">chfjpy</data>
</node>
<node id="chfjpy_low">
  <data key="d1">low</data>
  <data key="d2">chfjpy</data>
</node>
<node id="chfjpy_avg">
  <data key="d1">avg</data>
  <data key="d2">chfjpy</data>
</node>
<node id="chfsgd_high">
  <data key="d1">high</data>
  <data key="d2">chfsgd</data>
</node>
<node id="chfsgd_low">
  <data key="d1">low</data>
  <data key="d2">chfsgd</data>
</node>
<node id="chfsgd_avg">
  <data key="d1">avg</data>
  <data key="d2">chfsgd</data>
</node>
<node id="euraud_high">
  <data key="d1">high</data>
  <data key="d2">euraud</data>
</node>
<node id="euraud_low">
  <data key="d1">low</data>
  <data key="d2">euraud</data>
</node>
<node id="euraud_avg">
  <data key="d1">avg</data>
  <data key="d2">euraud</data>
</node>
<node id="eurcad_high">
  <data key="d1">high</data>
  <data key="d2">eurcad</data>
</node>
<node id="eurcad_low">
  <data key="d1">low</data>
  <data key="d2">eurcad</data>
</node>
<node id="eurcad_avg">
  <data key="d1">avg</data>
  <data key="d2">eurcad</data>
</node>
<node id="eurchf_high">
  <data key="d1">high</data>
  <data key="d2">eurchf</data>
</node>
<node id="eurchf_low">
  <data key="d1">low</data>
  <data key="d2">eurchf</data>
</node>
<node id="eurchf_avg">
  <data key="d1">avg</data>
  <data key="d2">eurchf</data>
</node>
<node id="eurczk_high">
  <data key="d1">high</data>
  <data key="d2">eurczk</data>
</node>
<node id="eurczk_low">
  <data key="d1">low</data>
  <data key="d2">eurczk</data>
</node>
<node id="eurczk_avg">
  <data key="d1">avg</data>
  <data key="d2">eurczk</data>
</node>
<node id="eurdkk_high">
  <data key="d1">high</data>
  <data key="d2">eurdkk</data>
</node>
<node id="eurdkk_low">
  <data key="d1">low</data>
  <data key="d2">eurdkk</data>
</node>
<node id="eurdkk_avg">
  <data key="d1">avg</data>
  <data key="d2">eurdkk</data>
</node>
<node id="eurgbp_high">
  <data key="d1">high</data>
  <data key="d2">eurgbp</data>
</node>
<node id="eurgbp_low">
  <data key="d1">low</data>
  <data key="d2">eurgbp</data>
</node>
<node id="eurgbp_avg">
  <data key="d1">avg</data>
  <data key="d2">eurgbp</data>
</node>
<node id="eurhkd_high">
  <data key="d1">high</data>
  <data key="d2">eurhkd</data>
</node>
<node id="eurhkd_low">
  <data key="d1">low</data>
  <data key="d2">eurhkd</data>
</node>
<node id="eurhkd_avg">
  <data key="d1">avg</data>
  <data key="d2">eurhkd</data>
</node>
<node id="eurhuf_high">
  <data key="d1">high</data>
  <data key="d2">eurhuf</data>
</node>
<node id="eurhuf_low">
  <data key="d1">low</data>
  <data key="d2">eurhuf</data>
</node>
<node id="eurhuf_avg">
  <data key="d1">avg</data>
  <data key="d2">eurhuf</data>
</node>
<node id="eurjpy_high">
  <data key="d1">high</data>
  <data key="d2">eurjpy</data>
</node>
<node id="eurjpy_low">
  <data key="d1">low</data>
  <data key="d2">eurjpy</data>
</node>
<node id="eurjpy_avg">
  <data key="d1">avg</data>
  <data key="d2">eurjpy</data>
</node>
<node id="eurnok_high">
  <data key="d1">high</data>
  <data key="d2">eurnok</data>
</node>
<node id="eurnok_low">
  <data key="d1">low</data>
  <data key="d2">eurnok</data>
</node>
<node id="eurnok_avg">
  <data key="d1">avg</data>
  <data key="d2">eurnok</data>
</node>
<node id="eurnzd_high">
  <data key="d1">high</data>
  <data key="d2">eurnzd</data>
</node>
<node id="eurnzd_low">
  <data key="d1">low</data>
  <data key="d2">eurnzd</data>
</node>
<node id="eurnzd_avg">
  <data key="d1">avg</data>
  <data key="d2">eurnzd</data>
</node>
<node id="eurpln_high">
  <data key="d1">high</data>
  <data key="d2">eurpln</data>
</node>
<node id="eurpln_low">
  <data key="d1">low</data>
  <data key="d2">eurpln</data>
</node>
<node id="eurpln_avg">
  <data key="d1">avg</data>
  <data key="d2">eurpln</data>
</node>
<node id="eurrub_high">
  <data key="d1">high</data>
  <data key="d2">eurrub</data>
</node>
<node id="eurrub_low">
  <data key="d1">low</data>
  <data key="d2">eurrub</data>
</node>
<node id="eurrub_avg">
  <data key="d1">avg</data>
  <data key="d2">eurrub</data>
</node>
<node id="eursek_high">
  <data key="d1">high</data>
  <data key="d2">eursek</data>
</node>
<node id="eursek_low">
  <data key="d1">low</data>
  <data key="d2">eursek</data>
</node>
<node id="eursek_avg">
  <data key="d1">avg</data>
  <data key="d2">eursek</data>
</node>
<node id="eursgd_high">
  <data key="d1">high</data>
  <data key="d2">eursgd</data>
</node>
<node id="eursgd_low">
  <data key="d1">low</data>
  <data key="d2">eursgd</data>
</node>
<node id="eursgd_avg">
  <data key="d1">avg</data>
  <data key="d2">eursgd</data>
</node>
<node id="eurtry_high">
  <data key="d1">high</data>
  <data key="d2">eurtry</data>
</node>
<node id="eurtry_low">
  <data key="d1">low</data>
  <data key="d2">eurtry</data>
</node>
<node id="eurtry_avg">
  <data key="d1">avg</data>
  <data key="d2">eurtry</data>
</node>
<node id="gbpaud_high">
  <data key="d1">high</data>
  <data key="d2">gbpaud</data>
</node>
<node id="gbpaud_low">
  <data key="d1">low</data>
  <data key="d2">gbpaud</data>
</node>
<node id="gbpaud_avg">
  <data key="d1">avg</data>
  <data key="d2">gbpaud</data>
</node>
<node id="gbpcad_high">
  <data key="d1">high</data>
  <data key="d2">gbpcad</data>
</node>
<node id="gbpcad_low">
  <data key="d1">low</data>
  <data key="d2">gbpcad</data>
</node>
<node id="gbpcad_avg">
  <data key="d1">avg</data>
  <data key="d2">gbpcad</data>
</node>
<node id="gbpchf_high">
  <data key="d1">high</data>
  <data key="d2">gbpchf</data>
</node>
<node id="gbpchf_low">
  <data key="d1">low</data>
  <data key="d2">gbpchf</data>
</node>
<node id="gbpchf_avg">
  <data key="d1">avg</data>
  <data key="d2">gbpchf</data>
</node>
<node id="gbpjpy_high">
  <data key="d1">high</data>
  <data key="d2">gbpjpy</data>
</node>
<node id="gbpjpy_low">
  <data key="d1">low</data>
  <data key="d2">gbpjpy</data>
</node>
<node id="gbpjpy_avg">
  <data key="d1">avg</data>
  <data key="d2">gbpjpy</data>
</node>
<node id="gbpnzd_high">
  <data key="d1">high</data>
  <data key="d2">gbpnzd</data>
</node>
<node id="gbpnzd_low">
  <data key="d1">low</data>
  <data key="d2">gbpnzd</data>
</node>
<node id="gbpnzd_avg">
  <data key="d1">avg</data>
  <data key="d2">gbpnzd</data>
</node>
<node id="hkdjpy_high">
  <data key="d1">high</data>
  <data key="d2">hkdjpy</data>
</node>
<node id="hkdjpy_low">
  <data key="d1">low</data>
  <data key="d2">hkdjpy</data>
</node>
<node id="hkdjpy_avg">
  <data key="d1">avg</data>
  <data key="d2">hkdjpy</data>
</node>
<node id="nzdcad_high">
  <data key="d1">high</data>
  <data key="d2">nzdcad</data>
</node>
<node id="nzdcad_low">
  <data key="d1">low</data>
  <data key="d2">nzdcad</data>
</node>
<node id="nzdcad_avg">
  <data key="d1">avg</data>
  <data key="d2">nzdcad</data>
</node>
<node id="nzdchf_high">
  <data key="d1">high</data>
  <data key="d2">nzdchf</data>
</node>
<node id="nzdchf_low">
  <data key="d1">low</data>
  <data key="d2">nzdchf</data>
</node>
<node id="nzdchf_avg">
  <data key="d1">avg</data>
  <data key="d2">nzdchf</data>
</node>
<node id="nzdjpy_high">
  <data key="d1">high</data>
  <data key="d2">nzdjpy</data>
</node>
<node id="nzdjpy_low">
  <data key="d1">low</data>
  <data key="d2">nzdjpy</data>
</node>
<node id="nzdjpy_avg">
  <data key="d1">avg</data>
  <data key="d2">nzdjpy</data>
</node>
<node id="sgdjpy_high">
  <data key="d1">high</data>
  <data key="d2">sgdjpy</data>
</node>
<node id="sgdjpy_low">
  <data key="d1">low</data>
  <data key="d2">sgdjpy</data>
</node>
<node id="sgdjpy_avg">
  <data key="d1">avg</data>
  <data key="d2">sgdjpy</data>
</node>
<node id="tryjpy_high">
  <data key="d1">high</data>
  <data key="d2">tryjpy</data>
</node>
<node id="tryjpy_low">
  <data key="d1">low</data>
  <data key="d2">tryjpy</data>
</node>
<node id="tryjpy_avg">
  <data key="d1">avg</data>
  <data key="d2">tryjpy</data>
</node>
<node id="usdcnh_high">
  <data key="d1">high</data>
  <data key="d2">usdcnh</data>
</node>
<node id="usdcnh_low">
  <data key="d1">low</data>
  <data key="d2">usdcnh</data>
</node>
<node id="usdcnh_avg">
  <data key="d1">avg</data>
  <data key="d2">usdcnh</data>
</node>
<node id="usdczk_high">
  <data key="d1">high</data>
  <data key="d2">usdczk</data>
</node>
<node id="usdczk_low">
  <data key="d1">low</data>
  <data key="d2">usdczk</data>
</node>
<node id="usdczk_avg">
  <data key="d1">avg</data>
  <data key="d2">usdczk</data>
</node>
<node id="usddkk_high">
  <data key="d1">high</data>
  <data key="d2">usddkk</data>
</node>
<node id="usddkk_low">
  <data key="d1">low</data>
  <data key="d2">usddkk</data>
</node>
<node id="usddkk_avg">
  <data key="d1">avg</data>
  <data key="d2">usddkk</data>
</node>
<node id="usdhuf_high">
  <data key="d1">high</data>
  <data key="d2">usdhuf</data>
</node>
<node id="usdhuf_low">
  <data key="d1">low</data>
  <data key="d2">usdhuf</data>
</node>
<node id="usdhuf_avg">
  <data key="d1">avg</data>
  <data key="d2">usdhuf</data>
</node>
<node id="usdils_high">
  <data key="d1">high</data>
  <data key="d2">usdils</data>
</node>
<node id="usdils_low">
  <data key="d1">low</data>
  <data key="d2">usdils</data>
</node>
<node id="usdils_avg">
  <data key="d1">avg</data>
  <data key="d2">usdils</data>
</node>
<node id="usdmxn_high">
  <data key="d1">high</data>
  <data key="d2">usdmxn</data>
</node>
<node id="usdmxn_low">
  <data key="d1">low</data>
  <data key="d2">usdmxn</data>
</node>
<node id="usdmxn_avg">
  <data key="d1">avg</data>
  <data key="d2">usdmxn</data>
</node>
<node id="usdnok_high">
  <data key="d1">high</data>
  <data key="d2">usdnok</data>
</node>
<node id="usdnok_low">
  <data key="d1">low</data>
  <data key="d2">usdnok</data>
</node>
<node id="usdnok_avg">
  <data key="d1">avg</data>
  <data key="d2">usdnok</data>
</node>
<node id="usdpln_high">
  <data key="d1">high</data>
  <data key="d2">usdpln</data>
</node>
<node id="usdpln_low">
  <data key="d1">low</data>
  <data key="d2">usdpln</data>
</node>
<node id="usdpln_avg">
  <data key="d1">avg</data>
  <data key="d2">usdpln</data>
</node>
<node id="usdron_high">
  <data key="d1">high</data>
  <data key="d2">usdron</data>
</node>
<node id="usdron_low">
  <data key="d1">low</data>
  <data key="d2">usdron</data>
</node>
<node id="usdron_avg">
  <data key="d1">avg</data>
  <data key="d2">usdron</data>
</node>
<node id="usdrub_high">
  <data key="d1">high</data>
  <data key="d2">usdrub</data>
</node>
<node id="usdrub_low">
  <data key="d1">low</data>
  <data key="d2">usdrub</data>
</node>
<node id="usdrub_avg">
  <data key="d1">avg</data>
  <data key="d2">usdrub</data>
</node>
<node id="usdsek_high">
  <data key="d1">high</data>
  <data key="d2">usdsek</data>
</node>
<node id="usdsek_low">
  <data key="d1">low</data>
  <data key="d2">usdsek</data>
</node>
<node id="usdsek_avg">
  <data key="d1">avg</data>
  <data key="d2">usdsek</data>
</node>
<node id="usdsgd_high">
  <data key="d1">high</data>
  <data key="d2">usdsgd</data>
</node>
<node id="usdsgd_low">
  <data key="d1">low</data>
  <data key="d2">usdsgd</data>
</node>
<node id="usdsgd_avg">
  <data key="d1">avg</data>
  <data key="d2">usdsgd</data>
</node>
<node id="usdthb_high">
  <data key="d1">high</data>
  <data key="d2">usdthb</data>
</node>
<node id="usdthb_low">
  <data key="d1">low</data>
  <data key="d2">usdthb</data>
</node>
<node id="usdthb_avg">
  <data key="d1">avg</data>
  <data key="d2">usdthb</data>
</node>
<node id="usdtry_high">
  <data key="d1">high</data>
  <data key="d2">usdtry</data>
</node>
<node id="usdtry_low">
  <data key="d1">low</data>
  <data key="d2">usdtry</data>
</node>
<node id="usdtry_avg">
  <data key="d1">avg</data>
  <data key="d2">usdtry</data>
</node>
<node id="usdzar_high">
  <data key="d1">high</data>
  <data key="d2">usdzar</data>
</node>
<node id="usdzar_low">
  <data key="d1">low</data>
  <data key="d2">usdzar</data>
</node>
<node id="usdzar_avg">
  <data key="d1">avg</data>
  <data key="d2">usdzar</data>
</node>
<node id="zarjpy_high">
  <data key="d1">high</data>
  <data key="d2">zarjpy</data>
</node>
<node id="zarjpy_low">
  <data key="d1">low</data>
  <data key="d2">zarjpy</data>
</node>
<node id="zarjpy_avg">
  <data key="d1">avg</data>
  <data key="d2">zarjpy</data>
</node>
<edge source="gspc_open" target="dji_open">
  <data key="d3">1.0</data>
</edge>
<edge source="gspc_open" target="ixic_open">
  <data key="d3">1.0</data>
</edge>
<edge source="gspc_open" target="nya_open">
  <data key="d3">1.0</data>
</edge>
<edge source="gspc_open" target="xax_open">
  <data key="d3">1.0</data>
</edge>
<edge source="gspc_open" target="buk100p_open">
  <data key="d3">1.0</data>
</edge>
<edge source="gspc_open" target="rut_open">
  <data key="d3">1.0</data>
</edge>
<edge source="gspc_open" target="vix_open">
  <data key="d3">1.0</data>
</edge>
<edge source="gspc_open" target="gdaxi_open">
  <data key="d3">1.0</data>
</edge>
<edge source="gspc_open" target="fchi_open">
  <data key="d3">1.0</data>
</edge>
<edge source="gspc_open" target="stoxx50e_open">
  <data key="d3">1.0</data>
</edge>
<edge source="gspc_open" target="n100_open">
  <data key="d3">1.0</data>
</edge>
<edge source="gspc_open" target="bfx_open">
  <data key="d3">1.0</data>
</edge>
<edge source="gspc_open" target="hsi_open">
  <data key="d3">1.0</data>
</edge>
<edge source="gspc_open" target="axjo_open">
  <data key="d3">1.0</data>
</edge>
<edge source="gspc_open" target="jkse_open">
  <data key="d3">1.0</data>
</edge>
<edge source="gspc_open" target="nz50_open">
  <data key="d3">1.0</data>
</edge>
<edge source="gspc_open" target="ks11_open">
  <data key="d3">1.0</data>
</edge>
<edge source="gspc_open" target="twii_open">
  <data key="d3">1.0</data>
</edge>
<edge source="gspc_open" target="gsptse_open">
  <data key="d3">1.0</data>
</edge>
<edge source="gspc_open" target="bvsp_open">
  <data key="d3">1.0</data>
</edge>
<edge source="gspc_open" target="mxx_open">
  <data key="d3">1.0</data>
</edge>
<edge source="gspc_open" target="ipsa_open">
  <data key="d3">1.0</data>
</edge>
<edge source="gspc_open" target="merv_open">
  <data key="d3">1.0</data>
</edge>
<edge source="gspc_open" target="ta125ta_open">
  <data key="d3">1.0</data>
</edge>
<edge source="gspc_open" target="jn0ujo_open">
  <data key="d3">1.0</data>
</edge>
<edge source="gspc_open" target="gspc_high">
  <data key="d3">0.990112980807361</data>
</edge>
<edge source="gspc_open" target="gspc_low">
  <data key="d3">0.9790523591629198</data>
</edge>
<edge source="gspc_high" target="dji_high">
  <data key="d3">1.0</data>
</edge>
<edge source="gspc_high" target="ixic_high">
  <data key="d3">1.0</data>
</edge>
<edge source="gspc_high" target="nya_high">
  <data key="d3">1.0</data>
</edge>
<edge source="gspc_high" target="xax_high">
  <data key="d3">1.0</data>
</edge>
<edge source="gspc_high" target="buk100p_high">
  <data key="d3">1.0</data>
</edge>
<edge source="gspc_high" target="rut_high">
  <data key="d3">1.0</data>
</edge>
<edge source="gspc_high" target="vix_high">
  <data key="d3">1.0</data>
</edge>
<edge source="gspc_high" target="gdaxi_high">
  <data key="d3">1.0</data>
</edge>
<edge source="gspc_high" target="fchi_high">
  <data key="d3">1.0</data>
</edge>
<edge source="gspc_high" target="stoxx50e_high">
  <data key="d3">1.0</data>
</edge>
<edge source="gspc_high" target="n100_high">
  <data key="d3">1.0</data>
</edge>
<edge source="gspc_high" target="bfx_high">
  <data key="d3">1.0</data>
</edge>
<edge source="gspc_high" target="hsi_high">
  <data key="d3">1.0</data>
</edge>
<edge source="gspc_high" target="axjo_high">
  <data key="d3">1.0</data>
</edge>
<edge source="gspc_high" target="jkse_high">
  <data key="d3">1.0</data>
</edge>
<edge source="gspc_high" target="nz50_high">
  <data key="d3">1.0</data>
</edge>
<edge source="gspc_high" target="ks11_high">
  <data key="d3">1.0</data>
</edge>
<edge source="gspc_high" target="twii_high">
  <data key="d3">1.0</data>
</edge>
<edge source="gspc_high" target="gsptse_high">
  <data key="d3">1.0</data>
</edge>
<edge source="gspc_high" target="bvsp_high">
  <data key="d3">1.0</data>
</edge>
<edge source="gspc_high" target="mxx_high">
  <data key="d3">1.0</data>
</edge>
<edge source="gspc_high" target="ipsa_high">
  <data key="d3">1.0</data>
</edge>
<edge source="gspc_high" target="merv_high">
  <data key="d3">1.0</data>
</edge>
<edge source="gspc_high" target="ta125ta_high">
  <data key="d3">1.0</data>
</edge>
<edge source="gspc_high" target="jn0ujo_high">
  <data key="d3">1.0</data>
</edge>
<edge source="gspc_high" target="usdcnh_low">
  <data key="d3">0.7281320817675854</data>
</edge>
<edge source="gspc_low" target="dji_low">
  <data key="d3">1.0</data>
</edge>
<edge source="gspc_low" target="ixic_low">
  <data key="d3">1.0</data>
</edge>
<edge source="gspc_low" target="nya_low">
  <data key="d3">1.0</data>
</edge>
<edge source="gspc_low" target="xax_low">
  <data key="d3">1.0</data>
</edge>
<edge source="gspc_low" target="buk100p_low">
  <data key="d3">1.0</data>
</edge>
<edge source="gspc_low" target="rut_low">
  <data key="d3">1.0</data>
</edge>
<edge source="gspc_low" target="vix_low">
  <data key="d3">1.0</data>
</edge>
<edge source="gspc_low" target="gdaxi_low">
  <data key="d3">1.0</data>
</edge>
<edge source="gspc_low" target="fchi_low">
  <data key="d3">1.0</data>
</edge>
<edge source="gspc_low" target="stoxx50e_low">
  <data key="d3">1.0</data>
</edge>
<edge source="gspc_low" target="n100_low">
  <data key="d3">1.0</data>
</edge>
<edge source="gspc_low" target="bfx_low">
  <data key="d3">1.0</data>
</edge>
<edge source="gspc_low" target="hsi_low">
  <data key="d3">1.0</data>
</edge>
<edge source="gspc_low" target="axjo_low">
  <data key="d3">1.0</data>
</edge>
<edge source="gspc_low" target="jkse_low">
  <data key="d3">1.0</data>
</edge>
<edge source="gspc_low" target="nz50_low">
  <data key="d3">1.0</data>
</edge>
<edge source="gspc_low" target="ks11_low">
  <data key="d3">1.0</data>
</edge>
<edge source="gspc_low" target="twii_low">
  <data key="d3">1.0</data>
</edge>
<edge source="gspc_low" target="gsptse_low">
  <data key="d3">1.0</data>
</edge>
<edge source="gspc_low" target="bvsp_low">
  <data key="d3">1.0</data>
</edge>
<edge source="gspc_low" target="mxx_low">
  <data key="d3">1.0</data>
</edge>
<edge source="gspc_low" target="ipsa_low">
  <data key="d3">1.0</data>
</edge>
<edge source="gspc_low" target="merv_low">
  <data key="d3">1.0</data>
</edge>
<edge source="gspc_low" target="ta125ta_low">
  <data key="d3">1.0</data>
</edge>
<edge source="gspc_low" target="jn0ujo_low">
  <data key="d3">1.0</data>
</edge>
<edge source="gspc_low" target="gspc_close">
  <data key="d3">0.9886167188868331</data>
</edge>
<edge source="gspc_close" target="gspc_adjclose">
  <data key="d3">1.0</data>
</edge>
<edge source="gspc_close" target="dji_close">
  <data key="d3">1.0</data>
</edge>
<edge source="gspc_close" target="dji_adjclose">
  <data key="d3">1.0</data>
</edge>
<edge source="gspc_close" target="ixic_close">
  <data key="d3">1.0</data>
</edge>
<edge source="gspc_close" target="ixic_adjclose">
  <data key="d3">1.0</data>
</edge>
<edge source="gspc_close" target="nya_close">
  <data key="d3">1.0</data>
</edge>
<edge source="gspc_close" target="nya_adjclose">
  <data key="d3">1.0</data>
</edge>
<edge source="gspc_close" target="xax_close">
  <data key="d3">1.0</data>
</edge>
<edge source="gspc_close" target="xax_adjclose">
  <data key="d3">1.0</data>
</edge>
<edge source="gspc_close" target="buk100p_close">
  <data key="d3">1.0</data>
</edge>
<edge source="gspc_close" target="buk100p_adjclose">
  <data key="d3">1.0</data>
</edge>
<edge source="gspc_close" target="rut_close">
  <data key="d3">1.0</data>
</edge>
<edge source="gspc_close" target="rut_adjclose">
  <data key="d3">1.0</data>
</edge>
<edge source="gspc_close" target="vix_close">
  <data key="d3">1.0</data>
</edge>
<edge source="gspc_close" target="vix_adjclose">
  <data key="d3">1.0</data>
</edge>
<edge source="gspc_close" target="gdaxi_close">
  <data key="d3">1.0</data>
</edge>
<edge source="gspc_close" target="gdaxi_adjclose">
  <data key="d3">1.0</data>
</edge>
<edge source="gspc_close" target="fchi_close">
  <data key="d3">1.0</data>
</edge>
<edge source="gspc_close" target="fchi_adjclose">
  <data key="d3">1.0</data>
</edge>
<edge source="gspc_close" target="stoxx50e_close">
  <data key="d3">1.0</data>
</edge>
<edge source="gspc_close" target="stoxx50e_adjclose">
  <data key="d3">1.0</data>
</edge>
<edge source="gspc_close" target="n100_close">
  <data key="d3">1.0</data>
</edge>
<edge source="gspc_close" target="n100_adjclose">
  <data key="d3">1.0</data>
</edge>
<edge source="gspc_close" target="bfx_close">
  <data key="d3">1.0</data>
</edge>
<edge source="gspc_close" target="bfx_adjclose">
  <data key="d3">1.0</data>
</edge>
<edge source="gspc_close" target="hsi_close">
  <data key="d3">1.0</data>
</edge>
<edge source="gspc_close" target="hsi_adjclose">
  <data key="d3">1.0</data>
</edge>
<edge source="gspc_close" target="axjo_close">
  <data key="d3">1.0</data>
</edge>
<edge source="gspc_close" target="axjo_adjclose">
  <data key="d3">1.0</data>
</edge>
<edge source="gspc_close" target="jkse_close">
  <data key="d3">1.0</data>
</edge>
<edge source="gspc_close" target="jkse_adjclose">
  <data key="d3">1.0</data>
</edge>
<edge source="gspc_close" target="nz50_close">
  <data key="d3">1.0</data>
</edge>
<edge source="gspc_close" target="nz50_adjclose">
  <data key="d3">1.0</data>
</edge>
<edge source="gspc_close" target="ks11_close">
  <data key="d3">1.0</data>
</edge>
<edge source="gspc_close" target="ks11_adjclose">
  <data key="d3">1.0</data>
</edge>
<edge source="gspc_close" target="twii_close">
  <data key="d3">1.0</data>
</edge>
<edge source="gspc_close" target="twii_adjclose">
  <data key="d3">1.0</data>
</edge>
<edge source="gspc_close" target="gsptse_close">
  <data key="d3">1.0</data>
</edge>
<edge source="gspc_close" target="gsptse_adjclose">
  <data key="d3">1.0</data>
</edge>
<edge source="gspc_close" target="bvsp_close">
  <data key="d3">1.0</data>
</edge>
<edge source="gspc_close" target="bvsp_adjclose">
  <data key="d3">1.0</data>
</edge>
<edge source="gspc_close" target="mxx_close">
  <data key="d3">1.0</data>
</edge>
<edge source="gspc_close" target="mxx_adjclose">
  <data key="d3">1.0</data>
</edge>
<edge source="gspc_close" target="ipsa_close">
  <data key="d3">1.0</data>
</edge>
<edge source="gspc_close" target="ipsa_adjclose">
  <data key="d3">1.0</data>
</edge>
<edge source="gspc_close" target="merv_close">
  <data key="d3">1.0</data>
</edge>
<edge source="gspc_close" target="merv_adjclose">
  <data key="d3">1.0</data>
</edge>
<edge source="gspc_close" target="ta125ta_close">
  <data key="d3">1.0</data>
</edge>
<edge source="gspc_close" target="ta125ta_adjclose">
  <data key="d3">1.0</data>
</edge>
<edge source="gspc_close" target="jn0ujo_close">
  <data key="d3">1.0</data>
</edge>
<edge source="gspc_close" target="jn0ujo_adjclose">
  <data key="d3">1.0</data>
</edge>
<edge source="gspc_volume" target="dji_volume">
  <data key="d3">1.0</data>
</edge>
<edge source="gspc_volume" target="ixic_volume">
  <data key="d3">1.0</data>
</edge>
<edge source="gspc_volume" target="nya_volume">
  <data key="d3">1.0</data>
</edge>
<edge source="gspc_volume" target="xax_volume">
  <data key="d3">1.0</data>
</edge>
<edge source="gspc_volume" target="buk100p_volume">
  <data key="d3">1.0</data>
</edge>
<edge source="gspc_volume" target="rut_volume">
  <data key="d3">1.0</data>
</edge>
<edge source="gspc_volume" target="vix_volume">
  <data key="d3">1.0</data>
</edge>
<edge source="gspc_volume" target="gdaxi_volume">
  <data key="d3">1.0</data>
</edge>
<edge source="gspc_volume" target="fchi_volume">
  <data key="d3">1.0</data>
</edge>
<edge source="gspc_volume" target="stoxx50e_volume">
  <data key="d3">1.0</data>
</edge>
<edge source="gspc_volume" target="n100_volume">
  <data key="d3">1.0</data>
</edge>
<edge source="gspc_volume" target="bfx_volume">
  <data key="d3">1.0</data>
</edge>
<edge source="gspc_volume" target="hsi_volume">
  <data key="d3">1.0</data>
</edge>
<edge source="gspc_volume" target="axjo_volume">
  <data key="d3">1.0</data>
</edge>
<edge source="gspc_volume" target="jkse_volume">
  <data key="d3">1.0</data>
</edge>
<edge source="gspc_volume" target="nz50_volume">
  <data key="d3">1.0</data>
</edge>
<edge source="gspc_volume" target="ks11_volume">
  <data key="d3">1.0</data>
</edge>
<edge source="gspc_volume" target="twii_volume">
  <data key="d3">1.0</data>
</edge>
<edge source="gspc_volume" target="gsptse_volume">
  <data key="d3">1.0</data>
</edge>
<edge source="gspc_volume" target="bvsp_volume">
  <data key="d3">1.0</data>
</edge>
<edge source="gspc_volume" target="mxx_volume">
  <data key="d3">1.0</data>
</edge>
<edge source="gspc_volume" target="ipsa_volume">
  <data key="d3">1.0</data>
</edge>
<edge source="gspc_volume" target="merv_volume">
  <data key="d3">1.0</data>
</edge>
<edge source="gspc_volume" target="ta125ta_volume">
  <data key="d3">1.0</data>
</edge>
<edge source="gspc_volume" target="jn0ujo_volume">
  <data key="d3">1.0</data>
</edge>
<edge source="gspc_volume" target="coppercmdusd_high">
  <data key="d3">0.3267897377139717</data>
</edge>
<edge source="coppercmdusd_high" target="coppercmdusd_avg">
  <data key="d3">0.9978797120027377</data>
</edge>
<edge source="coppercmdusd_low" target="coppercmdusd_avg">
  <data key="d3">0.9983588288206633</data>
</edge>
<edge source="coppercmdusd_avg" target="xagusd_avg">
  <data key="d3">0.9249307983894293</data>
</edge>
<edge source="gascmdusd_high" target="gascmdusd_avg">
  <data key="d3">0.9945602983531794</data>
</edge>
<edge source="gascmdusd_low" target="gascmdusd_avg">
  <data key="d3">0.9942353543009356</data>
</edge>
<edge source="gascmdusd_low" target="hkdjpy_high">
  <data key="d3">0.6259054634777456</data>
</edge>
<edge source="lightcmdusd_high" target="lightcmdusd_avg">
  <data key="d3">0.9961209971191639</data>
</edge>
<edge source="lightcmdusd_low" target="lightcmdusd_avg">
  <data key="d3">0.9962412901394859</data>
</edge>
<edge source="lightcmdusd_low" target="brentcmdusd_low">
  <data key="d3">0.9236627056862003</data>
</edge>
<edge source="brentcmdusd_high" target="brentcmdusd_avg">
  <data key="d3">0.9978964154070595</data>
</edge>
<edge source="brentcmdusd_low" target="brentcmdusd_avg">
  <data key="d3">0.9976150046500246</data>
</edge>
<edge source="brentcmdusd_avg" target="dieselcmdusd_avg">
  <data key="d3">0.9840269968383659</data>
</edge>
<edge source="dieselcmdusd_high" target="dieselcmdusd_avg">
  <data key="d3">0.9984371203011395</data>
</edge>
<edge source="dieselcmdusd_low" target="dieselcmdusd_avg">
  <data key="d3">0.998328914390384</data>
</edge>
<edge source="dieselcmdusd_avg" target="usdrub_low">
  <data key="d3">0.8333931820710886</data>
</edge>
<edge source="xauusd_high" target="xauusd_avg">
  <data key="d3">0.9989015443437231</data>
</edge>
<edge source="xauusd_low" target="xauusd_avg">
  <data key="d3">0.9986778581641127</data>
</edge>
<edge source="xauusd_low" target="xagusd_low">
  <data key="d3">0.9273055491973331</data>
</edge>
<edge source="xauusd_avg" target="nzdusd_avg">
  <data key="d3">0.9497271915221305</data>
</edge>
<edge source="xagusd_high" target="xagusd_avg">
  <data key="d3">0.9983831275139056</data>
</edge>
<edge source="xagusd_high" target="tryjpy_high">
  <data key="d3">0.9282453146718209</data>
</edge>
<edge source="xagusd_low" target="xagusd_avg">
  <data key="d3">0.9980642970865699</data>
</edge>
<edge source="xagusd_low" target="nzdchf_high">
  <data key="d3">0.9403213134911392</data>
</edge>
<edge source="gbpusd_high" target="gbpusd_avg">
  <data key="d3">0.9988312056509985</data>
</edge>
<edge source="gbpusd_low" target="gbpusd_avg">
  <data key="d3">0.9988125666783721</data>
</edge>
<edge source="gbpusd_avg" target="eurhkd_avg">
  <data key="d3">0.9687144574273786</data>
</edge>
<edge source="nzdusd_high" target="nzdusd_avg">
  <data key="d3">0.9993320841194484</data>
</edge>
<edge source="nzdusd_high" target="audusd_avg">
  <data key="d3">0.9626542168074512</data>
</edge>
<edge source="nzdusd_high" target="eurhkd_high">
  <data key="d3">0.9401478276804668</data>
</edge>
<edge source="nzdusd_low" target="nzdusd_avg">
  <data key="d3">0.999181412469168</data>
</edge>
<edge source="nzdusd_low" target="nzdcad_high">
  <data key="d3">0.8997247188593619</data>
</edge>
<edge source="usdcad_high" target="usdcad_avg">
  <data key="d3">0.9971624491585543</data>
</edge>
<edge source="usdcad_low" target="usdcad_avg">
  <data key="d3">0.9973870103404814</data>
</edge>
<edge source="usdcad_avg" target="eurpln_low">
  <data key="d3">0.8718368362716079</data>
</edge>
<edge source="usdjpy_high" target="usdjpy_avg">
  <data key="d3">0.9976581956347219</data>
</edge>
<edge source="usdjpy_low" target="usdjpy_avg">
  <data key="d3">0.9977483054705697</data>
</edge>
<edge source="usdjpy_low" target="hkdjpy_low">
  <data key="d3">0.9972192818107408</data>
</edge>
<edge source="usdjpy_avg" target="usdsgd_high">
  <data key="d3">0.7966422061271056</data>
</edge>
<edge source="usdchf_high" target="usdchf_avg">
  <data key="d3">0.9986504113748508</data>
</edge>
<edge source="usdchf_low" target="usdchf_avg">
  <data key="d3">0.998480958528105</data>
</edge>
<edge source="usdchf_low" target="usdczk_low">
  <data key="d3">0.8230421041545087</data>
</edge>
<edge source="eurusd_high" target="eurusd_avg">
  <data key="d3">0.998867293481761</data>
</edge>
<edge source="eurusd_high" target="eurhkd_high">
  <data key="d3">0.9987784508609376</data>
</edge>
<edge source="eurusd_low" target="eurusd_avg">
  <data key="d3">0.9989182786933181</data>
</edge>
<edge source="eurusd_avg" target="eursgd_high">
  <data key="d3">0.8852291355395807</data>
</edge>
<edge source="audusd_high" target="audusd_avg">
  <data key="d3">0.9990405821227908</data>
</edge>
<edge source="audusd_high" target="audsgd_high">
  <data key="d3">0.9442281359794434</data>
</edge>
<edge source="audusd_low" target="audusd_avg">
  <data key="d3">0.9989269943026132</data>
</edge>
<edge source="audusd_low" target="nzdjpy_high">
  <data key="d3">0.9320994162670565</data>
</edge>
<edge source="audcad_high" target="audcad_avg">
  <data key="d3">0.9985709888094545</data>
</edge>
<edge source="audcad_low" target="audcad_avg">
  <data key="d3">0.998784596282238</data>
</edge>
<edge source="audcad_low" target="nzdcad_avg">
  <data key="d3">0.9370685556605397</data>
</edge>
<edge source="audchf_high" target="audchf_avg">
  <data key="d3">0.9985524540256817</data>
</edge>
<edge source="audchf_high" target="nzdchf_high">
  <data key="d3">0.9232406386223329</data>
</edge>
<edge source="audchf_low" target="audchf_avg">
  <data key="d3">0.9980497933778693</data>
</edge>
<edge source="audjpy_high" target="audjpy_avg">
  <data key="d3">0.9977627629133539</data>
</edge>
<edge source="audjpy_high" target="audsgd_avg">
  <data key="d3">0.9223154589398068</data>
</edge>
<edge source="audjpy_low" target="audjpy_avg">
  <data key="d3">0.9970021499343469</data>
</edge>
<edge source="audjpy_low" target="sgdjpy_high">
  <data key="d3">0.7794774803460492</data>
</edge>
<edge source="audnzd_high" target="audnzd_avg">
  <data key="d3">0.9928468398467158</data>
</edge>
<edge source="audnzd_low" target="audnzd_avg">
  <data key="d3">0.9961096269206252</data>
</edge>
<edge source="audnzd_low" target="hkdjpy_high">
  <data key="d3">0.7485901784417285</data>
</edge>
<edge source="audsgd_high" target="audsgd_avg">
  <data key="d3">0.9984473721356434</data>
</edge>
<edge source="audsgd_low" target="audsgd_avg">
  <data key="d3">0.9985958177642305</data>
</edge>
<edge source="cadchf_high" target="cadchf_avg">
  <data key="d3">0.9963887106150814</data>
</edge>
<edge source="cadchf_high" target="sgdjpy_low">
  <data key="d3">0.6416833072780195</data>
</edge>
<edge source="cadchf_low" target="cadchf_avg">
  <data key="d3">0.9959294294352624</data>
</edge>
<edge source="cadhkd_high" target="cadhkd_avg">
  <data key="d3">0.9972036450671625</data>
</edge>
<edge source="cadhkd_low" target="cadhkd_avg">
  <data key="d3">0.9970188112804185</data>
</edge>
<edge source="cadhkd_avg" target="eurjpy_high">
  <data key="d3">0.831082051934665</data>
</edge>
<edge source="cadjpy_high" target="cadjpy_avg">
  <data key="d3">0.9968432045117798</data>
</edge>
<edge source="cadjpy_high" target="chfjpy_low">
  <data key="d3">0.6386242602983374</data>
</edge>
<edge source="cadjpy_low" target="cadjpy_avg">
  <data key="d3">0.996195659872689</data>
</edge>
<edge source="cadjpy_low" target="hkdjpy_high">
  <data key="d3">0.6788149608489821</data>
</edge>
<edge source="cadjpy_avg" target="sgdjpy_avg">
  <data key="d3">0.8670306454992462</data>
</edge>
<edge source="chfjpy_high" target="chfjpy_avg">
  <data key="d3">0.997711454124183</data>
</edge>
<edge source="chfjpy_high" target="chfsgd_high">
  <data key="d3">0.7704339528530584</data>
</edge>
<edge source="chfjpy_low" target="chfjpy_avg">
  <data key="d3">0.997819987411591</data>
</edge>
<edge source="chfsgd_high" target="chfsgd_avg">
  <data key="d3">0.9972563976261604</data>
</edge>
<edge source="chfsgd_low" target="chfsgd_avg">
  <data key="d3">0.9982049209715893</data>
</edge>
<edge source="euraud_high" target="euraud_avg">
  <data key="d3">0.9969117939318142</data>
</edge>
<edge source="euraud_high" target="gbpaud_avg">
  <data key="d3">0.8710256944030434</data>
</edge>
<edge source="euraud_low" target="euraud_avg">
  <data key="d3">0.997614294377624</data>
</edge>
<edge source="euraud_avg" target="gbpnzd_avg">
  <data key="d3">0.8212851426422815</data>
</edge>
<edge source="eurcad_high" target="eurcad_avg">
  <data key="d3">0.9972536486241627</data>
</edge>
<edge source="eurcad_low" target="eurcad_avg">
  <data key="d3">0.9972381577498582</data>
</edge>
<edge source="eurcad_avg" target="gbpcad_avg">
  <data key="d3">0.9266961204040234</data>
</edge>
<edge source="eurchf_high" target="eurchf_avg">
  <data key="d3">0.9979351590571803</data>
</edge>
<edge source="eurchf_high" target="nzdchf_low">
  <data key="d3">0.8834185898889763</data>
</edge>
<edge source="eurchf_low" target="eurchf_avg">
  <data key="d3">0.9970452761291504</data>
</edge>
<edge source="eurchf_avg" target="gbpchf_low">
  <data key="d3">0.9477565500952874</data>
</edge>
<edge source="eurczk_high" target="eurczk_avg">
  <data key="d3">0.9927852853694793</data>
</edge>
<edge source="eurczk_high" target="usdmxn_high">
  <data key="d3">0.6118745734508306</data>
</edge>
<edge source="eurczk_low" target="eurczk_avg">
  <data key="d3">0.9942950195482747</data>
</edge>
<edge source="eurczk_avg" target="usdczk_high">
  <data key="d3">0.9147990733935402</data>
</edge>
<edge source="eurdkk_high" target="eurdkk_avg">
  <data key="d3">0.9810030114335971</data>
</edge>
<edge source="eurdkk_low" target="eurdkk_avg">
  <data key="d3">0.9933064948192474</data>
</edge>
<edge source="eurdkk_low" target="eurnzd_avg">
  <data key="d3">0.8634190260985912</data>
</edge>
<edge source="eurdkk_avg" target="usdtry_low">
  <data key="d3">0.8655643773634819</data>
</edge>
<edge source="eurgbp_high" target="eurgbp_avg">
  <data key="d3">0.9929736866145814</data>
</edge>
<edge source="eurgbp_low" target="eurgbp_avg">
  <data key="d3">0.9917615417231683</data>
</edge>
<edge source="eurgbp_low" target="usdcnh_high">
  <data key="d3">0.6185556356466829</data>
</edge>
<edge source="eurhkd_high" target="eurhkd_avg">
  <data key="d3">0.9988118811455022</data>
</edge>
<edge source="eurhkd_low" target="eurhkd_avg">
  <data key="d3">0.9988584030744865</data>
</edge>
<edge source="eurhuf_high" target="eurhuf_avg">
  <data key="d3">0.9987742964288668</data>
</edge>
<edge source="eurhuf_high" target="usdhuf_high">
  <data key="d3">0.9638958328294753</data>
</edge>
<edge source="eurhuf_low" target="eurhuf_avg">
  <data key="d3">0.9986057797447173</data>
</edge>
<edge source="eurjpy_high" target="eurjpy_avg">
  <data key="d3">0.9959158572431421</data>
</edge>
<edge source="eurjpy_low" target="eurjpy_avg">
  <data key="d3">0.9952326209276372</data>
</edge>
<edge source="eurjpy_avg" target="gbpjpy_avg">
  <data key="d3">0.9088227739246008</data>
</edge>
<edge source="eurnok_high" target="eurnok_avg">
  <data key="d3">0.990987598614369</data>
</edge>
<edge source="eurnok_high" target="eursgd_high">
  <data key="d3">0.4702299209124092</data>
</edge>
<edge source="eurnok_low" target="eurnok_avg">
  <data key="d3">0.991869062583827</data>
</edge>
<edge source="eurnzd_high" target="eurnzd_avg">
  <data key="d3">0.9966846109737059</data>
</edge>
<edge source="eurnzd_low" target="eurnzd_avg">
  <data key="d3">0.9975549403550651</data>
</edge>
<edge source="eurnzd_avg" target="gbpnzd_avg">
  <data key="d3">0.8613163602284316</data>
</edge>
<edge source="eurpln_high" target="eurpln_avg">
  <data key="d3">0.9973245469462887</data>
</edge>
<edge source="eurpln_low" target="eurpln_avg">
  <data key="d3">0.9975611557060272</data>
</edge>
<edge source="eurpln_low" target="usdpln_low">
  <data key="d3">0.9471485502669084</data>
</edge>
<edge source="eurrub_high" target="eurrub_avg">
  <data key="d3">0.997704383688563</data>
</edge>
<edge source="eurrub_low" target="eurrub_avg">
  <data key="d3">0.9951537485998805</data>
</edge>
<edge source="eurrub_low" target="usdrub_high">
  <data key="d3">0.9457109750704114</data>
</edge>
<edge source="eursek_high" target="eursek_avg">
  <data key="d3">0.9977411658260555</data>
</edge>
<edge source="eursek_low" target="eursek_avg">
  <data key="d3">0.9982180884023161</data>
</edge>
<edge source="eursek_avg" target="usdsek_low">
  <data key="d3">0.8615486765673256</data>
</edge>
<edge source="eursgd_high" target="eursgd_avg">
  <data key="d3">0.9969127973941347</data>
</edge>
<edge source="eursgd_low" target="eursgd_avg">
  <data key="d3">0.9975382626798294</data>
</edge>
<edge source="eurtry_high" target="eurtry_avg">
  <data key="d3">0.9970906385665513</data>
</edge>
<edge source="eurtry_high" target="usdtry_high">
  <data key="d3">0.996842377314416</data>
</edge>
<edge source="eurtry_low" target="eurtry_avg">
  <data key="d3">0.9980621800325036</data>
</edge>
<edge source="gbpaud_high" target="gbpaud_avg">
  <data key="d3">0.9962800746969684</data>
</edge>
<edge source="gbpaud_low" target="gbpaud_avg">
  <data key="d3">0.9968278006893202</data>
</edge>
<edge source="gbpcad_high" target="gbpcad_avg">
  <data key="d3">0.997904668874772</data>
</edge>
<edge source="gbpcad_low" target="gbpcad_avg">
  <data key="d3">0.9982520060445134</data>
</edge>
<edge source="gbpcad_avg" target="nzdcad_low">
  <data key="d3">0.8646606062512033</data>
</edge>
<edge source="gbpchf_high" target="gbpchf_avg">
  <data key="d3">0.9980593892456875</data>
</edge>
<edge source="gbpchf_low" target="gbpchf_avg">
  <data key="d3">0.9980207294292535</data>
</edge>
<edge source="gbpjpy_high" target="gbpjpy_avg">
  <data key="d3">0.9959573207442668</data>
</edge>
<edge source="gbpjpy_low" target="gbpjpy_avg">
  <data key="d3">0.9958904260885008</data>
</edge>
<edge source="gbpjpy_low" target="nzdjpy_low">
  <data key="d3">0.8383565441714472</data>
</edge>
<edge source="gbpnzd_high" target="gbpnzd_avg">
  <data key="d3">0.9938015967589608</data>
</edge>
<edge source="gbpnzd_low" target="gbpnzd_avg">
  <data key="d3">0.9958967376266611</data>
</edge>
<edge source="hkdjpy_high" target="hkdjpy_avg">
  <data key="d3">0.9976104757304035</data>
</edge>
<edge source="hkdjpy_low" target="hkdjpy_avg">
  <data key="d3">0.9976801400509591</data>
</edge>
<edge source="nzdcad_high" target="nzdcad_avg">
  <data key="d3">0.9991143633471367</data>
</edge>
<edge source="nzdcad_low" target="nzdcad_avg">
  <data key="d3">0.9988529818640917</data>
</edge>
<edge source="nzdchf_high" target="nzdchf_avg">
  <data key="d3">0.9987722817588229</data>
</edge>
<edge source="nzdchf_low" target="nzdchf_avg">
  <data key="d3">0.9982711887076048</data>
</edge>
<edge source="nzdjpy_high" target="nzdjpy_avg">
  <data key="d3">0.9981196833785664</data>
</edge>
<edge source="nzdjpy_low" target="nzdjpy_avg">
  <data key="d3">0.9974591798144499</data>
</edge>
<edge source="sgdjpy_high" target="sgdjpy_avg">
  <data key="d3">0.9935754589711565</data>
</edge>
<edge source="sgdjpy_low" target="sgdjpy_avg">
  <data key="d3">0.9926390127793767</data>
</edge>
<edge source="tryjpy_high" target="tryjpy_avg">
  <data key="d3">0.9989298904459093</data>
</edge>
<edge source="tryjpy_high" target="zarjpy_avg">
  <data key="d3">0.9519638776436398</data>
</edge>
<edge source="tryjpy_low" target="tryjpy_avg">
  <data key="d3">0.9986166334138683</data>
</edge>
<edge source="usdcnh_high" target="usdcnh_avg">
  <data key="d3">0.999293232469127</data>
</edge>
<edge source="usdcnh_low" target="usdcnh_avg">
  <data key="d3">0.9992545255159776</data>
</edge>
<edge source="usdcnh_low" target="usdsgd_low">
  <data key="d3">0.9429497520226092</data>
</edge>
<edge source="usdczk_high" target="usdczk_avg">
  <data key="d3">0.998827285730614</data>
</edge>
<edge source="usdczk_low" target="usdczk_avg">
  <data key="d3">0.9988716728193935</data>
</edge>
<edge source="usdczk_avg" target="usddkk_avg">
  <data key="d3">0.9929598098676994</data>
</edge>
<edge source="usdczk_avg" target="usdpln_avg">
  <data key="d3">0.9901705404479721</data>
</edge>
<edge source="usddkk_high" target="usddkk_avg">
  <data key="d3">0.9989715503927823</data>
</edge>
<edge source="usddkk_low" target="usddkk_avg">
  <data key="d3">0.9988817842893079</data>
</edge>
<edge source="usddkk_low" target="usdnok_low">
  <data key="d3">0.9450873059759044</data>
</edge>
<edge source="usddkk_avg" target="usdron_avg">
  <data key="d3">0.9957056090285838</data>
</edge>
<edge source="usdhuf_high" target="usdhuf_avg">
  <data key="d3">0.9992829767636097</data>
</edge>
<edge source="usdhuf_low" target="usdhuf_avg">
  <data key="d3">0.9992728192135713</data>
</edge>
<edge source="usdhuf_low" target="usdpln_low">
  <data key="d3">0.989454733704442</data>
</edge>
<edge source="usdhuf_low" target="usdsgd_low">
  <data key="d3">0.9607622265503041</data>
</edge>
<edge source="usdils_high" target="usdils_avg">
  <data key="d3">0.9985686621875421</data>
</edge>
<edge source="usdils_low" target="usdils_avg">
  <data key="d3">0.9988042689903516</data>
</edge>
<edge source="usdils_low" target="usdsek_high">
  <data key="d3">0.9117339279800745</data>
</edge>
<edge source="usdmxn_high" target="usdmxn_avg">
  <data key="d3">0.9972214009642455</data>
</edge>
<edge source="usdmxn_low" target="usdmxn_avg">
  <data key="d3">0.9967408584169228</data>
</edge>
<edge source="usdnok_high" target="usdnok_avg">
  <data key="d3">0.997578003559733</data>
</edge>
<edge source="usdnok_low" target="usdnok_avg">
  <data key="d3">0.9980167879178269</data>
</edge>
<edge source="usdpln_high" target="usdpln_avg">
  <data key="d3">0.999071855930909</data>
</edge>
<edge source="usdpln_low" target="usdpln_avg">
  <data key="d3">0.9989073014312908</data>
</edge>
<edge source="usdpln_low" target="usdsek_avg">
  <data key="d3">0.939393798272691</data>
</edge>
<edge source="usdron_high" target="usdron_avg">
  <data key="d3">0.998666748523461</data>
</edge>
<edge source="usdron_low" target="usdron_avg">
  <data key="d3">0.9987308031550526</data>
</edge>
<edge source="usdrub_high" target="usdrub_avg">
  <data key="d3">0.998967590812648</data>
</edge>
<edge source="usdrub_low" target="usdrub_avg">
  <data key="d3">0.9978959325990946</data>
</edge>
<edge source="usdrub_low" target="usdsek_avg">
  <data key="d3">0.9394277545403666</data>
</edge>
<edge source="usdsek_high" target="usdsek_avg">
  <data key="d3">0.9990711617010166</data>
</edge>
<edge source="usdsek_low" target="usdsek_avg">
  <data key="d3">0.9990885650838395</data>
</edge>
<edge source="usdsgd_high" target="usdsgd_avg">
  <data key="d3">0.99867805016933</data>
</edge>
<edge source="usdsgd_high" target="usdthb_high">
  <data key="d3">0.9108857031497789</data>
</edge>
<edge source="usdsgd_low" target="usdsgd_avg">
  <data key="d3">0.9989132110565969</data>
</edge>
<edge source="usdsgd_low" target="usdzar_avg">
  <data key="d3">0.9461330124044292</data>
</edge>
<edge source="usdthb_high" target="usdthb_avg">
  <data key="d3">0.9988243351753205</data>
</edge>
<edge source="usdthb_low" target="usdthb_avg">
  <data key="d3">0.9989057357489026</data>
</edge>
<edge source="usdtry_high" target="usdtry_avg">
  <data key="d3">0.9977859801227904</data>
</edge>
<edge source="usdtry_low" target="usdtry_avg">
  <data key="d3">0.9982095941028191</data>
</edge>
<edge source="usdtry_low" target="usdzar_high">
  <data key="d3">0.9543405939972517</data>
</edge>
<edge source="usdzar_high" target="usdzar_avg">
  <data key="d3">0.9983111165676921</data>
</edge>
<edge source="usdzar_low" target="usdzar_avg">
  <data key="d3">0.9990655839073762</data>
</edge>
<edge source="zarjpy_high" target="zarjpy_avg">
  <data key="d3">0.9984091844055225</data>
</edge>
<edge source="zarjpy_low" target="zarjpy_avg">
  <data key="d3">0.9985058008901454</data>
</edge>
</graph></graphml>